Lake Ice Phenology: Part 1
…
head(ice_data)

# A tibble: 6 × 4
  lake_name  year ice_off_doy did_not_freeze
  <chr>     <dbl> <chr>                <dbl>
1 Baikal     1869 121                      0
2 Baikal     1870 127                      0
3 Baikal     1871 120                      0
4 Baikal     1872 127                      0
5 Baikal     1873 133                      0
6 Baikal     1874 116                      0

ice_data

# A tibble: 2,703 × 4
   lake_name  year ice_off_doy did_not_freeze
   <chr>     <dbl> <chr>                <dbl>
 1 Baikal     1869 121                      0
 2 Baikal     1870 127                      0
 3 Baikal     1871 120                      0
 4 Baikal     1872 127                      0
 5 Baikal     1873 133                      0
 6 Baikal     1874 116                      0
 7 Baikal     1875 119                      0
 8 Baikal     1876 134                      0
 9 Baikal     1877 154                      0
10 Baikal     1878 127                      0
# ℹ 2,693 more rows
…
sunapee <- ice_data |> filter(lake_name == 'Sunapee')
sunapee$ice_off_doy <- as.numeric(sunapee$ice_off_doy)
sunapee

# A tibble: 157 × 4
   lake_name  year ice_off_doy did_not_freeze
   <chr>     <dbl>       <dbl>          <dbl>
 1 Sunapee    1869         130              0
 2 Sunapee    1870         130              0
 3 Sunapee    1871         102              0
 4 Sunapee    1872         124              0
 5 Sunapee    1873         126              0
 6 Sunapee    1874         129              0
 7 Sunapee    1875         132              0
 8 Sunapee    1876         132              0
 9 Sunapee    1877         115              0
10 Sunapee    1878         108              0
# ℹ 147 more rows
…
